{
  "type": "object",
  "$id": "schema:todo:status:params",
  "required": ["id", "status"],
  "additionalProperties": false,
  "properties": {
    "id": {
      "type": "string"
    },
    "status": {
      "type": "string",
      "enum": ["done", "undone"]
    }
  }
}